<?xml version="1.0" encoding="UTF-8"?>
<svg width="287px" height="49px" viewBox="0 0 287 49" version="1.1" xmlns="http://www.w3.org/2000/svg" xmlns:xlink="http://www.w3.org/1999/xlink">
    <!-- Generator: Sketch 51.1 (57501) - http://www.bohemiancoding.com/sketch -->
    <title>Group 5</title>
    <desc>Created with Sketch.</desc>
    <defs></defs>
    <g id="Page-1" stroke="none" stroke-width="1" fill="none" fill-rule="evenodd">
        <g id="Desktop-HD" transform="translate(-989.000000, -1487.000000)" fill-rule="nonzero">
            <g id="Group-5" transform="translate(989.000000, 1487.000000)">
                <path d="M32.6375,25.6125 C29.8,25.875 28.375,30.5375 28.5375,36.3125 C28.725,42.2125 29.9125,47.6625 32.8125,48.1625 L33.9625,48.325 C34.575,41.4625 36.825,36.4625 40.5625,36.125 L55.55,36.2125 C54.8375,29.7375 52.45,25.975 49.85,25.725 L32.6375,25.6125" id="path16" fill="#FFFFFF" transform="translate(42.037501, 36.968750) scale(-1, 1) rotate(-180.000000) translate(-42.037501, -36.968750) "></path>
                <path d="M32.6375,25.6125 C29.8,25.875 28.375,30.5375 28.5375,36.3125 C28.725,42.2125 29.9125,47.6625 32.8125,48.1625 L33.9625,48.325 C34.575,41.4625 36.825,36.4625 40.5625,36.125 L55.55,36.2125 C54.8375,29.7375 52.45,25.975 49.85,25.725 L32.6375,25.6125" id="path18" fill="#808183" transform="translate(42.037501, 36.968750) scale(-1, 1) rotate(-180.000000) translate(-42.037501, -36.968750) "></path>
                <path d="M14.725,11.425 C12.9,11.5875 11.975,14.6 12.075,18.325 C12.2,22.1375 12.9625,25.65 14.8375,25.9625 L26.625,27.6625 C26.775,27.7125 26.9125,27.7375 27.0625,27.7375 C28.725,27.7375 29.8625,24.2875 29.625,19.6 C29.375,14.5875 27.6875,11.675 25.8375,11.5 L14.725,11.425" id="path20" fill="#FFFFFF" transform="translate(20.862003, 19.581250) scale(-1, 1) rotate(-180.000000) translate(-20.862003, -19.581250) "></path>
                <path d="M14.725,11.425 C12.9,11.5875 11.975,14.6 12.075,18.325 C12.2,22.1375 12.9625,25.65 14.8375,25.9625 L26.625,27.6625 C26.775,27.7125 26.9125,27.7375 27.0625,27.7375 C28.725,27.7375 29.8625,24.2875 29.625,19.6 C29.375,14.5875 27.6875,11.675 25.8375,11.5 L14.725,11.425" id="path22" fill="#808183" transform="translate(20.862003, 19.581250) scale(-1, 1) rotate(-180.000000) translate(-20.862003, -19.581250) "></path>
                <path d="M2.1125,0.3125 C0.825,0.425 0.1875,2.525 0.2625,5.125 C0.3375,7.7875 0.875,10.2375 2.1875,10.475 L10.425,11.65 C10.525,11.6875 10.6375,11.7 10.7375,11.7 C11.9125,11.7 12.6875,9.275 12.525,6.0125 C12.35,2.5125 11.175,0.475 9.875,0.35 L2.1125,0.3125" id="path24" fill="#FFFFFF" transform="translate(6.401529, 6.006250) scale(-1, 1) rotate(-180.000000) translate(-6.401529, -6.006250) "></path>
                <path d="M2.1125,0.3125 C0.825,0.425 0.1875,2.525 0.2625,5.125 C0.3375,7.7875 0.875,10.2375 2.1875,10.475 L10.425,11.65 C10.525,11.6875 10.6375,11.7 10.7375,11.7 C11.9125,11.7 12.6875,9.275 12.525,6.0125 C12.35,2.5125 11.175,0.475 9.875,0.35 L2.1125,0.3125" id="path26" fill="#808183" transform="translate(6.401529, 6.006250) scale(-1, 1) rotate(-180.000000) translate(-6.401529, -6.006250) "></path>
                <path d="M41.4125,6.75 C38.275,7.025 36.6875,12.2 36.875,18.575 C37.0875,25.125 38.4,31.1375 41.6,31.6875 L61.8375,34.6 C62.0875,34.6875 62.3375,34.725 62.5875,34.725 C65.45,34.725 67.3625,28.7875 66.9625,20.7625 C66.5625,12.1625 63.6375,7.1875 60.4625,6.875 L41.4125,6.75" id="path28" fill="#FFFFFF" transform="translate(51.937710, 20.737500) scale(-1, 1) rotate(-180.000000) translate(-51.937710, -20.737500) "></path>
                <path d="M41.4125,6.75 C38.275,7.025 36.6875,12.2 36.875,18.575 C37.0875,25.125 38.4,31.1375 41.6,31.6875 L61.8375,34.6 C62.0875,34.6875 62.3375,34.725 62.5875,34.725 C65.45,34.725 67.3625,28.7875 66.9625,20.7625 C66.5625,12.1625 63.6375,7.1875 60.4625,6.875 L41.4125,6.75" id="path30" fill="#1A5A75" transform="translate(51.937710, 20.737500) scale(-1, 1) rotate(-180.000000) translate(-51.937710, -20.737500) "></path>
                <polyline id="path32" fill="#1A5A75" transform="translate(117.593750, 22.331250) scale(-1, 1) rotate(-180.000000) translate(-117.593750, -22.331250) " points="117.6 19.775 111.625 8.7625 104.575 8.775 112.725 22.875 105.4125 35.9 112.7375 35.9 117.6125 25.8625 122.5 35.9 129.825 35.9 122.4875 22.8875 130.6125 8.775 123.5625 8.7875 117.6 19.775"></polyline>
                <path d="M142.8125,10.425 C142.8125,9.8875 142.825,9.375 142.8625,8.9 C142.9,8.425 143.0375,8.025 143.275,7.675 C143.5125,7.325 143.875,7.0625 144.3875,6.8875 C144.8875,6.7 145.6125,6.6125 146.5625,6.6125 L150.4125,6.6125 L150.95,6.0625 L150.95,4.7125 C150.95,3.625 150.625,2.8625 150,2.4125 C149.3625,1.9625 148.2375,1.7375 146.6125,1.7375 L144.9875,1.7375 C143.3625,1.7375 142,1.9 140.8875,2.225 C139.7875,2.55 138.8875,3.0125 138.2,3.6125 C137.5125,4.2125 137.025,4.9375 136.7375,5.8125 C136.45,6.675 136.3,7.6375 136.3,8.6875 L136.3125,23.9875 L132.5125,23.9875 L132.5125,28.325 L136.3125,28.6 L137.95,35.925 L142.8375,35.925 L142.825,28.875 L150.425,28.875 L150.425,23.9875 L142.825,23.9875 L142.8125,10.425" id="path34" fill="#1A5A75" transform="translate(141.731250, 18.831250) scale(-1, 1) rotate(-180.000000) translate(-141.731250, -18.831250) "></path>
                <path d="M168.6,31.0625 L162.0875,31.0625 L162.075,8.55 L155.5625,8.55 L155.5875,35.4 C157.7625,35.5375 159.475,35.65 160.7375,35.725 C162,35.8 163.0625,35.85 163.9125,35.8875 C164.7625,35.925 165.5125,35.9375 166.1625,35.9375 C166.85,35.9375 167.6625,35.9375 168.6,35.9375 L168.6,31.0625" id="path36" fill="#1A5A75" transform="translate(162.081250, 22.243750) scale(-1, 1) rotate(-180.000000) translate(-162.081250, -22.243750) "></path>
                <path d="M188.65,13.6875 L188.6625,20.7375 L181.125,20.75 C180.3625,20.75 179.7625,20.675 179.3375,20.5 C178.9,20.3375 178.5625,20.125 178.3375,19.85 C178.1,19.575 177.95,19.275 177.9,18.925 C177.85,18.575 177.8125,18.2125 177.8125,17.8125 L177.8125,16.6125 C177.8125,16.25 177.8375,15.8875 177.8875,15.525 C177.9375,15.1625 178.0875,14.85 178.325,14.575 C178.5625,14.3 178.8875,14.0875 179.325,13.925 C179.7625,13.7625 180.3625,13.675 181.1125,13.675 C181.1125,13.6875 188.65,13.6875 188.65,13.6875 Z M174.025,31.325 L173.4875,31.875 L173.4875,33.2375 C173.4875,34.325 173.8,35.0875 174.4375,35.5375 C175.075,35.9875 176.2,36.2125 177.825,36.2125 L185.9625,36.2 C187.5875,36.2 188.9875,36.0125 190.1375,35.625 C191.3,35.2375 192.25,34.7125 193.0125,34.05 C193.775,33.375 194.325,32.5875 194.6625,31.6625 C195,30.7375 195.175,29.75 195.175,28.7125 L195.1625,9.35 C193,9.2125 191.15,9.1 189.6625,9.025 C188.1625,8.95 186.85,8.9 185.725,8.8625 C184.6,8.825 183.5875,8.8125 182.6875,8.8125 C181.825,8.8125 180.9125,8.8125 179.975,8.8125 C178.35,8.8125 176.9875,8.975 175.875,9.3 C174.775,9.625 173.875,10.0875 173.1875,10.6875 C172.5,11.2875 172.0125,12.025 171.725,12.8875 C171.4375,13.75 171.2875,14.7125 171.3,15.7625 L171.3,19.2375 C171.3,20.2875 171.45,21.25 171.7375,22.1125 C172.025,22.975 172.5125,23.7125 173.2125,24.3125 C173.9,24.9125 174.8,25.3625 175.9,25.6875 C177,26.0125 178.375,26.175 180,26.175 C180.8375,26.175 181.4625,26.175 181.9,26.175 C182.375,26.175 182.8625,26.15 183.3625,26.125 C183.875,26.0875 184.5125,26.0375 185.2875,25.9625 C186.0625,25.8875 187.2,25.775 188.675,25.6375 L188.675,26.725 C188.675,27.3375 188.6375,27.925 188.5375,28.4875 C188.45,29.05 188.2375,29.5375 187.9125,29.95 C187.5875,30.3625 187.1125,30.7 186.5,30.95 C185.8875,31.2 185.075,31.325 184.0625,31.3375 L174.025,31.325 Z" id="path38" fill="#1A5A75" transform="translate(183.237139, 22.512500) scale(-1, 1) rotate(-180.000000) translate(-183.237139, -22.512500) "></path>
                <polyline id="path40" fill="#1A5A75" transform="translate(214.143750, 19.162500) scale(-1, 1) rotate(-180.000000) translate(-214.143750, -19.162500) " points="220.65 2.35 220.6625 17.1 207.6375 17.1125 207.625 2.35 200.8375 2.3625 200.8625 36 207.6375 35.9875 207.625 22.3125 220.65 22.3 220.6625 35.975 227.45 35.9625 227.425 2.325 220.65 2.35"></polyline>
                <path d="M246.2125,13.725 C247.8375,13.725 248.9625,13.9875 249.575,14.5125 C250.1875,15.0375 250.5,15.8625 250.5,16.975 L250.5125,27.825 C250.5125,28.95 250.2125,29.7625 249.5875,30.2875 C248.975,30.8125 247.85,31.075 246.225,31.075 L243.95,31.075 C242.325,31.075 241.2,30.8125 240.5875,30.2875 C239.975,29.7625 239.6625,28.9375 239.6625,27.825 L239.65,16.975 C239.65,15.85 239.95,15.025 240.575,14.5 C241.1875,13.975 242.3125,13.7125 243.9375,13.7125 L246.2125,13.725 Z M241.8125,8.85 C240.1875,8.85 238.825,9.0125 237.7125,9.3375 C236.6125,9.6625 235.7125,10.125 235.025,10.725 C234.3375,11.325 233.85,12.05 233.5625,12.925 C233.275,13.7875 233.125,14.75 233.125,15.8 L233.1375,29.0375 C233.1375,30.0875 233.2875,31.05 233.575,31.9125 C233.8625,32.775 234.35,33.5125 235.0375,34.1125 C235.725,34.7125 236.625,35.1625 237.725,35.5 C238.825,35.825 240.2,35.9875 241.825,35.9875 L248.3375,35.9875 C249.9625,35.9875 251.325,35.825 252.4375,35.5 C253.5375,35.175 254.4375,34.7125 255.125,34.1125 C255.8125,33.5125 256.3,32.7875 256.5875,31.9125 C256.875,31.0375 257.025,30.0875 257.0125,29.0375 L257,15.8 C257,14.75 256.85,13.7875 256.5625,12.925 C256.275,12.0625 255.7875,11.325 255.1,10.725 C254.4125,10.125 253.525,9.6625 252.4125,9.3375 C251.3125,9.0125 249.9375,8.85 248.3125,8.85 L241.8125,8.85 Z" id="path42" fill="#1A5A75" transform="translate(245.069111, 22.418750) scale(-1, 1) rotate(-180.000000) translate(-245.069111, -22.418750) "></path>
                <path d="M280.0625,27.9 L280.075,38.5375 C280.075,39.05 280.0625,39.5125 280.05,39.95 C280.0375,40.3875 279.925,40.75 279.725,41.0625 C279.525,41.375 279.2,41.6 278.75,41.7625 C278.3,41.925 277.6375,42.0125 276.775,42.0125 L269.2375,42.0125 L269.225,24.1125 L276.3375,24.1 C277.275,24.1 278,24.1875 278.5,24.375 C279.0125,24.55 279.375,24.8125 279.6125,25.1625 C279.85,25.5 279.9875,25.9125 280.025,26.375 C280.05,26.85 280.0625,27.3625 280.0625,27.9 Z M277.8875,19.225 C277.4875,19.225 277.0375,19.225 276.5375,19.225 C276.025,19.225 275.4375,19.2375 274.775,19.275 C274.1,19.3125 273.325,19.3625 272.4125,19.4375 C271.5125,19.5125 270.4375,19.625 269.2125,19.7625 L269.2,8.6375 L262.6875,8.6375 L262.7125,46.3375 C264.8875,46.475 266.725,46.5875 268.225,46.6625 C269.725,46.7375 271.0375,46.7875 272.1625,46.825 C273.2875,46.8625 274.275,46.875 275.15,46.875 C276.05,46.875 276.975,46.875 277.9125,46.875 C279.5375,46.875 280.9,46.7125 282.0125,46.3875 C283.1125,46.0625 284.0125,45.6 284.7,45 C285.3875,44.4 285.875,43.675 286.1625,42.8 C286.45,41.9375 286.6,40.975 286.6,39.925 L286.5875,26.15 C286.5875,25.1 286.4375,24.1375 286.15,23.275 C285.8625,22.4125 285.375,21.675 284.6875,21.075 C284,20.475 283.1,20.025 282,19.7 C280.875,19.3875 279.5125,19.225 277.8875,19.225 Z" id="path44" fill="#1A5A75" transform="translate(274.643750, 27.756250) scale(-1, 1) rotate(-180.000000) translate(-274.643750, -27.756250) "></path>
                <path d="M85.5125,29.7125 C86.1875,30.4125 87.45,30.7625 89.3375,30.7625 L103.225,30.75 L103.775,31.2875 L103.775,32.9125 C103.775,34 103.4625,34.7625 102.825,35.2125 C102.1875,35.6625 101.0625,35.8875 99.4375,35.9 L86.425,35.9125 C84.8,35.9125 83.4375,35.75 82.325,35.425 C81.225,35.1 80.325,34.6375 79.6375,34.05 C78.95,33.45 78.4625,32.725 78.175,31.85 C77.8875,30.9875 77.7375,30.025 77.7375,28.975 L77.7375,24.6875 C77.7375,24.5125 77.7625,24.35 77.775,24.175 L77.775,14.925 C77.75,14.725 77.7375,14.525 77.7375,14.3125 L77.7375,9.2125 C77.7375,8.1625 77.875,7.2 78.175,6.3375 C78.4625,5.475 78.95,4.7375 79.6375,4.1375 C80.325,3.5375 81.2125,3.075 82.325,2.75 C83.425,2.425 84.7875,2.2625 86.425,2.2625 L99.45,2.25 C101.075,2.25 102.2125,2.475 102.8375,2.925 C103.475,3.375 103.7875,4.15 103.7875,5.2375 L103.7875,6.8625 L103.25,7.4 L89.3625,7.4125 C87.475,7.4125 86.2,7.7625 85.5375,8.475 C84.8625,9.175 84.5375,10.0875 84.5375,11.2125 L84.5375,13.275 C84.5375,14.325 84.8375,15.225 85.4375,15.9625 C86.0375,16.7 87.1625,17.075 88.825,17.075 L97.825,17.0625 L97.825,21.8875 L88.8125,21.9 C87.15,21.9 86.025,22.275 85.425,23.0125 C84.825,23.75 84.525,24.65 84.5375,25.7 L84.5375,26.95 C84.5125,28.1 84.85,29.0125 85.5125,29.7125" id="path46" fill="#1A5A75" transform="translate(90.762500, 19.081250) scale(-1, 1) rotate(-180.000000) translate(-90.762500, -19.081250) "></path>
            </g>
        </g>
    </g>
</svg>